<%@ page language="java" contentType="text/html; charset=utf-8"
    pageEncoding="utf-8"%>
    
<%@page import="도형.Figure" %>
<%@page import="도형.Game_rule" %>
<!DOCTYPE html PUBLIC "-//W3C//DTD HTML 4.01 Transitional//EN" "http://www.w3.org/TR/html4/loose.dtd">
<%!
String ruf_status;
%>
<%
	request.setCharacterEncoding("utf-8");
	 Figure[] temp=(Figure[])session.getAttribute("figure");
	int[] rand_num;
	rand_num=(int[])session.getAttribute("rand_num");
	String id1=(String)session.getAttribute("User1");
	String id2=(String)session.getAttribute("User2");
	int score1 = (int)session.getAttribute("user1_score");
	int score2=(int)session.getAttribute("user2_score");
	String status=(String)session.getAttribute("status");
	int hap_num = (int)session.getAttribute("hap");
	
	

%>


<html>
<head>
<meta http-equiv="Content-Type" content="text/html; charset=EUC-KR">
<title><%=id1%>의 화면</title>
</head>
<script type="text/javascript">
function update()
{	
	location.href="http://localhost:8080/NewFile/User1.jsp";

}


function timealert()
{
	setTimeout("alert('턴이 시작되고 10초가 지났습니다.합을 눌러주세요')",1000);
}

</script>
<body leftmargin="0" background ="image\new_LYzdPpK.jpg" topmargin="0" marginwidth="0" marginheight="0";background-repeat:no-repeat >
<form action="NewFile.jsp" method="post">
<table border="2" bordercolor="black"  style ="position : absolute; left:300px; top:50px;">
<tr>
<td >
<img src="<%=temp[rand_num[0]].str %>" width=100 height=100>
<input type="radio"  name="button1" value="버튼1"></td>
<td>
<img src="<%=temp[rand_num[1]].str %>" width=100 height=100>
<input type="radio"  name="button2" value="버튼2">
</td>
<td >
<img src="<%=temp[rand_num[2]].str %>" width=100 height=100>
<input type="radio"  name="button3" value="버튼3">
</td>
</tr>
<tr>
<td>
<img src="<%=temp[rand_num[3]].str %>" width=100 height=100>
<input type="radio"  name="button4" value="버튼4">
</td>
<td>
<img src="<%=temp[rand_num[4]].str %>" width=100 height=100 >
<input type="radio"  name="button5" value="버튼5">
</td>
<td>
<img src="<%=temp[rand_num[5]].str %>" width=100 height=100>
<input type="radio"  name="button6" value="버튼6">
</td>
</tr>
<tr>
<td>
<img src="<%=temp[rand_num[6]].str %>" width=100 height=100>
<input type="radio"  name="button7" value="버튼7">
</td>
<td>
<img src="<%=temp[rand_num[7]].str %>" width=100 height=100>
<input type="radio"  name="button8" value="버튼8">
</td>
<td>
<img src="<%=temp[rand_num[8]].str %>" width=100 height=100>
<input type="radio"  name="button9" value="버튼9">
</td>
</tr>
</table>
<input type="radio" name="결" value="결" style="position : absolute; left : 380px; top : 445px;">
<input type="hidden" name="user" value=<%=id1%>>
<input type="submit" value="합"  style="position : absolute; left : 400px; top : 445px;">
</form>
<button type= "button" onclick="update(); timealert();"   name="업데이트" value="업데이트" style="position : absolute; left : 450px; top : 440px;" >
<img src="image\update.png" height="23" width="70"  >
</button>


<table border="3" style="position : absolute; left : 800px; top : 40px;">
<tr>
<td>
<font face="HY강M" Color="white">
<%=id1 %> 의 점수 : 
</font>
</td>
<td>
<font face="HY강M" Color="white">
<%=score1 %>
</font>
</td>
</tr>
<tr>
<td>
<font face="HY강M" Color="white">
<%=id2 %> 의 점수 :
</font>
</td>
<td>
<font face="HY강M" Color="white">
<%=score2 %>
</font>
</td>
</tr>
</table>
<div style ="position : absolute; left:550px; top:450px;" >
<font face="HY강M">
남은 합의 개수 : <%=hap_num%>
</font>
</div>
<textArea rows="20" cols="16" name="점수판" style="position : absolute; left : 800px; top : 100px;">
<%=status %>
</textArea>




</body>
</html>